Project 1
…
away_wins <- first_filter %>% filter(grepl("A", result)) %>% group_by(away_team, season) %>% summarize_all(n_distinct) %>% mutate(wins_away = home_team) %>% select(wins_away, away_team, season)

After this point, I began joining the datasets together, starting with the teams and the home/away games won. After that I joined the home/away games won by each individual team to the overall statistic database for each full season. I used full_join for both of these joins because of the utility it provided me in just simply adding all the necessary data to the “stats” dataset. This also allowed me to observe my data in a more easily accessible format, as I was able to just look across the dataset to find the home_games won compared to the total number of games won.

#Joining
joined_away_home <- full_join(home_wins, away_wins, by=c("home_team" = "away_team", "season" = "season")) %>% rename(club = home_team)

joined_datasets <- full_join(full_filtered, joined_away_home, by=c("season"="season", "team" = "club"))

Next, I filtered the data so that I could take a look at the comparison over time between the total number of wins that each team achieved and the number of away and home wins per season. In doing so, I was able to see that on average, teams that a high amount of wins during the course of the season were more likely to win at home than when they were away. This contradicts my earlier conclusion, and even backs up traditional mindsets about this matter.

#Wrangling
joined_datasets %>% select(team, wins, wins_home, wins_away, season) %>% group_by(team,season, wins) %>% summarize( max = max(wins_home)) %>% arrange(desc(max))

## # A tibble: 60 x 4
## # Groups:   team, season [60]
##    team              season     wins   max
##    <fct>             <fct>     <dbl> <int>
##  1 Chelsea           2016-2017    30    17
##  2 Tottenham Hotspur 2016-2017    26    17
##  3 Manchester City   2017-2018    32    16
##  4 Arsenal           2017-2018    19    15
##  5 Manchester United 2017-2018    25    15
##  6 Arsenal           2016-2017    23    14
##  7 Everton           2016-2017    17    13
##  8 Tottenham Hotspur 2017-2018    23    13
##  9 Arsenal           2015-2016    20    12
## 10 Leicester City    2015-2016    23    12
## # … with 50 more rows

joined_datasets %>% select(team, wins, wins_home, wins_away, season) %>% group_by(team,season, wins) %>% summarize( away = max(wins_away)) %>% arrange(desc(away))

## # A tibble: 60 x 4
## # Groups:   team, season [60]
##    team              season     wins  away
##    <fct>             <fct>     <dbl> <int>
##  1 Manchester City   2017-2018    32    16
##  2 Chelsea           2016-2017    30    13
##  3 Manchester City   2016-2017    23    12
##  4 Leicester City    2015-2016    23    11
##  5 Chelsea           2017-2018    21    10
##  6 Liverpool         2016-2017    22    10
##  7 Manchester United 2016-2017    18    10
##  8 Manchester United 2017-2018    25    10
##  9 Tottenham Hotspur 2017-2018    23    10
## 10 Arsenal           2016-2017    23     9
## # … with 50 more rows
…
#Wrangling

correlation_matrix <- joined_datasets %>% select_if(is.numeric) %>% cor() %>% round(2)

joined_datasets %>% select(team, wins, season, total_pass, goals) %>% group_by(team) %>% summarize(avg_passes = mean(total_pass)) %>% arrange(desc(avg_passes))

## # A tibble: 25 x 2
##    team              avg_passes
##    <fct>                  <dbl>
##  1 Manchester City       23812.
##  2 Arsenal               22056.
##  3 Liverpool             21662.
##  4 Chelsea               20351 
##  5 Tottenham Hotspur     20153 
##  6 Manchester United     20126.
##  7 Southampton           17111.
##  8 AFC Bournemouth       16851 
##  9 Everton               16761.
## 10 Swansea City          16674.
## # … with 15 more rows

joined_datasets %>% select(team, wins, season, dispossessed, goals) %>% group_by(team) %>% summarize(avg_disposessions =  mean(dispossessed)) %>% arrange(desc(avg_disposessions))

## # A tibble: 25 x 2
##    team                 avg_disposessions
##    <fct>                            <dbl>
##  1 Tottenham Hotspur                 508.
##  2 Liverpool                         493 
##  3 Crystal Palace                    482.
##  4 Manchester City                   476.
##  5 Arsenal                           463.
##  6 West Bromwich Albion              457 
##  7 Swansea City                      450 
##  8 Manchester United                 437.
##  9 Everton                           434.
## 10 Norwich City                      426 
## # … with 15 more rows

joined_datasets %>% select(team, wins, season, goals) %>% group_by(team) %>% summarize (avg_goals = mean(goals)) %>% arrange(desc(avg_goals))

## # A tibble: 25 x 2
##    team              avg_goals
##    <fct>                 <dbl>
##  1 Manchester City        85.7
##  2 Tottenham Hotspur      76.3
##  3 Liverpool              75  
##  4 Arsenal                72  
##  5 Chelsea                68.7
##  6 Leicester City         57.3
##  7 Manchester United      57  
##  8 Everton                55  
##  9 West Ham United        53.3
## 10 AFC Bournemouth        48.3
## # … with 15 more rows

joined_datasets %>% select(team, wins, season, touches, goals) %>% group_by(team) %>% summarize(avg_touches = mean(touches)) %>% arrange(desc(avg_touches))

## # A tibble: 25 x 2
##    team              avg_touches
##    <fct>                   <dbl>
##  1 Manchester City        31296.
##  2 Arsenal                29634.
##  3 Liverpool              29428.
##  4 Tottenham Hotspur      28192 
##  5 Chelsea                27916 
##  6 Manchester United      27729.
##  7 Southampton            24745.
##  8 AFC Bournemouth        24575.
##  9 Everton                24449.
## 10 Swansea City           24164 
## # … with 15 more rows

joined_datasets %>% select(team, wins, total_through_ball, goals) %>% group_by(team) %>% summarize_all(mean) %>% arrange(desc(total_through_ball))

## # A tibble: 25 x 4
##    team               wins total_through_ball goals
##    <fct>             <dbl>              <dbl> <dbl>
##  1 Arsenal            20.7              138    72  
##  2 Manchester City    24.7              109.   85.7
##  3 Chelsea            21                 82.3  68.7
##  4 Liverpool          19.7               79.3  75  
##  5 Manchester United  20.7               75.7  57  
##  6 Tottenham Hotspur  22.7               64    76.3
##  7 Southampton        12.3               53    45.7
##  8 Stoke City         10.7               49    39  
##  9 Newcastle United   10.5               47.5  41.5
## 10 Sunderland          7.5               47.5  38.5
## # … with 15 more rows
…
